module github.com/GritselMaks/BT_API

go 1.18

require (
	github.com/caarlos0/env/v6 v6.10.1
	github.com/golang-migrate/migrate/v4 v4.15.2
	github.com/gorilla/mux v1.8.0
	github.com/joho/godotenv v1.4.0
	github.com/lib/pq v1.10.7
	github.com/recoilme/pudge v1.0.3
	github.com/sirupsen/logrus v1.9.0
	github.com/stretchr/testify v1.7.0
)

require (
	github.com/davecgh/go-spew v1.1.1 // indirect
	github.com/hashicorp/errwrap v1.1.0 // indirect
	github.com/hashicorp/go-multierror v1.1.1 // indirect
	github.com/pmezard/go-difflib v1.0.0 // indirect
	go.uber.org/atomic v1.7.0 // indirect
	golang.org/x/sys v0.0.0-20220715151400-c0bba94af5f8 // indirect
	gopkg.in/yaml.v3 v3.0.1 // indirect
)
